Staypoint estimate analysis
…
alcohol_venue_types = c("Bar", "Nightclub", "Lounge", "Pub", "Wine Bar", "Gay Bar",
  "Nightlife", "Sports Bar", "Jazz Club", "Brewery", "Karaoke",
  "Liquor Store", "Rock Club", "Festival", "Whisky Bar")

df_4sq_locations %>%
  count( primaryCategory, sort=TRUE) 

# A tibble: 359 x 2
   primaryCategory        n
   <chr>              <int>
 1 Corporate / Office   368
 2 <NA>                 357
 3 Bar                  201
 4 Light Rail           197
 5 Italian              175
 6 Swiss                170
 7 Home                 169
 8 Hotel                169
 9 Café                 145
10 Bus Station          123
# … with 349 more rows
…
