Exploration of algorithms and parameters
…
df_surveys_to_match %>%
  inner_join( df_nights_with_gps %>% dplyr::select(userid, night), by=c('userid','night')) %>%
  { . } -> df_surveys_to_match_2

too small duration GPS

which survey nights had less than 20 minutes of GPS in a night

df_nights_with_gps %>%
  filter( duration < 1200 ) %>%
  inner_join( df_surveys_to_match_2, by=c('userid','night')  ) %>%
  count()

# A tibble: 62 x 2
# Groups:   userid [62]
   userid                                   n
   <chr>                                <int>
 1 05f35693-7fec-4372-af78-7bd904c187e0     1
 2 0606e872-4a83-4e04-b90c-9b7c06e15a7b     2
 3 0ea8dc43-bd54-425d-ba09-7ceaf0dd81ee     1
 4 184a19da-2ba4-4be0-bf31-7c03216a06b4     6
 5 1dd4c355-b584-4cff-9f7a-71b361795521     1
 6 24c0f1c5-a8f0-4f7e-a8c9-3bb9b545ddae     3
 7 29a5418a-4e67-43d0-bf5c-11d37aaf19fc     2
 8 2be6c6d4-a381-4d67-af8d-745077eb21fa     3
 9 2d06d8a5-febc-4c02-850b-e6d3e35cebfe     1
10 33dc1703-077d-4028-b6d8-55bbfb5b405c     2
# … with 52 more rows
…
df_surveys_to_match_6 %>%
  inner_join( df_nights_with_gps, by=c('userid', 'night')) %>%
  filter( timestamp < first_gps_timestamp - desert_endpoint_offset  | timestamp > last_gps_timestamp + desert_endpoint_offset ) %>%
  { . } -> df_surveys_pre_or_post_gps

df_surveys_to_match_6 %>%
  anti_join( df_surveys_pre_or_post_gps, by='id' ) %>%
  { . } -> df_surveys_to_match_7

df_surveys_to_match_final = df_surveys_to_match_7

get_predictable_surveys()

# A tibble: 531 x 13
      id ptype_id_long ptype_long ptype_id_short ptype_short category userid
   <dbl>         <dbl> <chr>               <dbl> <chr>       <chr>    <chr> 
 1     5             1 Bar                     1 Bar         sp       02f95…
 2     7             6 Streets /…              6 Streets / … sp       0387c…
 3     8             6 Streets /…              6 Streets / … sp       0387c…
 4    10             1 Bar                     1 Bar         sp       0387c…
 5   168             4 Private                 4 Private     sp       0ea8d…
 6   169             4 Private                 4 Private     sp       0ea8d…
 7   170             4 Private                 4 Private     sp       0ea8d…
 8   171             4 Private                 4 Private     sp       0ea8d…
 9   172             4 Private                 4 Private     sp       0ea8d…
10   174             7 Indoor re…             14 Other comm… sp       0ea8d…
# … with 521 more rows, and 6 more variables: night <date>, timestamp <dbl>,
#   n_gps_points <int>, last_gps_timestamp <int>, first_gps_timestamp <int>,
#   duration <int>
…
