Exploration of algorithms and parameters
…
df_results %>%
  arrange(desc(total_sp_duration)) %>%
  dplyr::select( source, predictable_hits, predictable_misses, sp_total, total_sp_duration)

# A tibble: 720 x 5
   source            predictable_hits predictable_mis… sp_total total_sp_durati…
   <chr>                        <int>            <int>    <dbl>            <dbl>
 1 optics.distance_…              476                5     4079         25602198
 2 optics.distance_…              476                5     4079         25602198
 3 optics.distance_…              478                3     4131         25601875
 4 optics.distance_…              478                3     4131         25601875
 5 optics.distance_…              476                5     4055         25571923
 6 optics.distance_…              476                5     4055         25571923
 7 optics.distance_…              465               16     3331         25286071
 8 optics.distance_…              465               16     3331         25286071
 9 optics.distance_…              466               15     3358         25274077
10 optics.distance_…              466               15     3358         25274077
# … with 710 more rows
…
