Explore Staypoint base Data Evaluation and Preperation
…
Joining, by = c("userid", "night")

Adding missing grouping variables: `userid`

# A tibble: 218 x 8
# Groups:   userid, night [108]
   userid  night         id which timezone ts                  ordr       n
   <fct>   <date>     <int> <chr> <chr>    <dttm>              <chr>  <int>
 1 33dc17… 2014-11-07   690 pre   Europe/… 2014-11-07 17:22:13 pre-d…     3
 2 33dc17… 2014-11-07   690 dq    Europe/… 2014-11-08 01:54:55 pre-d…     3
 3 33dc17… 2014-11-07   690 tom   Europe/… 2014-11-08 14:17:19 pre-d…     3
 4 33dc17… 2014-11-14   694 pre   Europe/… 2014-11-14 18:55:44 pre-d…     3
 5 33dc17… 2014-11-14   694 dq    Europe/… 2014-11-14 23:08:17 pre-d…     3
 6 33dc17… 2014-11-14   694 tom   Europe/… 2014-11-15 09:24:27 pre-d…     3
 7 ab5016… 2014-09-19  2877 pre   Europe/… 2014-09-19 15:04:25 pre-l…     2
 8 5bfdf0… 2014-09-19  1440 pre   Europe/… 2014-09-19 15:05:08 pre-l…     2
 9 52bd47… 2014-09-19  1275 pre   Europe/… 2014-09-19 15:59:34 pre-l…     2
10 b5f8d7… 2014-09-19  3116 pre   Europe/… 2014-09-19 16:00:20 pre-d…     2
# … with 208 more rows
…
